DATA in the Grammar of Graphics — Understanding Data Types and Wrangling with dplyr
…
This means: Take the mpg dataset → keep rows where hwy > 30 → keep only the selected columns.

This syntax improves readability by avoiding nested parentheses like:

select(filter(mpg, hwy > 30), manufacturer, model, hwy)

4 Core Functions in dplyr

4.1 select()

Chooses specific columns by name.

mpg %>% select(manufacturer, model, hwy)

# A tibble: 234 × 3
   manufacturer model        hwy
   <chr>        <chr>      <int>
 1 audi         a4            29
 2 audi         a4            29
 3 audi         a4            31
 4 audi         a4            30
 5 audi         a4            26
 6 audi         a4            26
 7 audi         a4            27
 8 audi         a4 quattro    26
 9 audi         a4 quattro    25
10 audi         a4 quattro    28
# ℹ 224 more rows
…
Arguments: - Logical expressions using column names. - Multiple conditions separated by commas mean AND (both must be true).

4.3 arrange()

Sorts rows by one or more columns.

mpg %>% arrange(desc(hwy))

# A tibble: 234 × 11
   manufacturer model      displ  year   cyl trans drv     cty   hwy fl    class
   <chr>        <chr>      <dbl> <int> <int> <chr> <chr> <int> <int> <chr> <chr>
 1 volkswagen   jetta        1.9  1999     4 manu… f        33    44 d     comp…
 2 volkswagen   new beetle   1.9  1999     4 manu… f        35    44 d     subc…
 3 volkswagen   new beetle   1.9  1999     4 auto… f        29    41 d     subc…
 4 toyota       corolla      1.8  2008     4 manu… f        28    37 r     comp…
 5 honda        civic        1.8  2008     4 auto… f        25    36 r     subc…
 6 honda        civic        1.8  2008     4 auto… f        24    36 c     subc…
 7 toyota       corolla      1.8  1999     4 manu… f        26    35 r     comp…
 8 toyota       corolla      1.8  2008     4 auto… f        26    35 r     comp…
 9 honda        civic        1.8  2008     4 manu… f        26    34 r     subc…
10 honda        civic        1.6  1999     4 manu… f        28    33 r     subc…
# ℹ 224 more rows

Arguments: - Columns to sort by. - desc() sorts in descending order.

4.4 mutate()

Adds new variables or transforms existing ones.

mpg %>% mutate(kmpl = hwy / 2.35)

# A tibble: 234 × 12
   manufacturer model      displ  year   cyl trans drv     cty   hwy fl    class
   <chr>        <chr>      <dbl> <int> <int> <chr> <chr> <int> <int> <chr> <chr>
 1 audi         a4           1.8  1999     4 auto… f        18    29 p     comp…
 2 audi         a4           1.8  1999     4 manu… f        21    29 p     comp…
 3 audi         a4           2    2008     4 manu… f        20    31 p     comp…
 4 audi         a4           2    2008     4 auto… f        21    30 p     comp…
 5 audi         a4           2.8  1999     6 auto… f        16    26 p     comp…
 6 audi         a4           2.8  1999     6 manu… f        18    26 p     comp…
 7 audi         a4           3.1  2008     6 auto… f        18    27 p     comp…
 8 audi         a4 quattro   1.8  1999     4 manu… 4        18    26 p     comp…
 9 audi         a4 quattro   1.8  1999     4 auto… 4        16    25 p     comp…
10 audi         a4 quattro   2    2008     4 manu… 4        20    28 p     comp…
# ℹ 224 more rows
# ℹ 1 more variable: kmpl <dbl>
…
